Lab4
…
importancia <- arbol_podado$variable.importance

importancia_df <- tibble(
  variable = names(importancia),
  importancia = as.numeric(importancia)
) %>%
  arrange(desc(importancia))

importancia_df

## # A tibble: 23 × 2
##    variable                   importancia
##    <chr>                            <dbl>
##  1 host_total_listings_count 81127359310.
##  2 host_neighbourhood        63876697332.
##  3 availability_365          17779475540.
##  4 availability_eoy          17779475540.
##  5 availability_30           16411823575.
##  6 availability_60           16411823575.
##  7 availability_90           16411823575.
##  8 minimum_maximum_nights    11560844069.
##  9 maximum_minimum_nights     8407886596.
## 10 minimum_nights_avg_ntm     7356900771.
## # ℹ 13 more rows
…
importancia <- mejor_modelo$variable.importance

importancia_df <- tibble(
  variable = names(importancia),
  importancia = as.numeric(importancia)
) %>%
  arrange(desc(importancia))

importancia_df

## # A tibble: 25 × 2
##    variable                   importancia
##    <chr>                            <dbl>
##  1 host_total_listings_count 81127359310.
##  2 host_neighbourhood        63949635821.
##  3 availability_365          17779475540.
##  4 availability_eoy          17779475540.
##  5 availability_60           16816647124.
##  6 availability_90           16816647124.
##  7 availability_30           16411823575.
##  8 minimum_maximum_nights    11560844069.
##  9 maximum_minimum_nights     8407886596.
## 10 minimum_nights_avg_ntm     7356900771.
## # ℹ 15 more rows
…
